stm32f4xx_it.c:70:6:NMI_Handler	4	static
stm32f4xx_it.c:83:6:HardFault_Handler	4	static
stm32f4xx_it.c:98:6:MemManage_Handler	4	static
stm32f4xx_it.c:113:6:BusFault_Handler	4	static
stm32f4xx_it.c:128:6:UsageFault_Handler	4	static
stm32f4xx_it.c:143:6:SVC_Handler	4	static
stm32f4xx_it.c:156:6:DebugMon_Handler	4	static
stm32f4xx_it.c:169:6:PendSV_Handler	4	static
stm32f4xx_it.c:182:6:SysTick_Handler	8	static
stm32f4xx_it.c:203:6:PVD_IRQHandler	8	static
stm32f4xx_it.c:217:6:FLASH_IRQHandler	8	static
stm32f4xx_it.c:231:6:RCC_IRQHandler	4	static
stm32f4xx_it.c:244:6:EXTI2_IRQHandler	8	static
stm32f4xx_it.c:258:6:EXTI3_IRQHandler	8	static
stm32f4xx_it.c:272:6:FPU_IRQHandler	4	static
