main.c:104:6:HAL_ADC_ConvCpltCallback	16	static
main.c:116:6:HAL_GPIO_EXTI_Callback	16	static
main.c:122:5:debouncer	24	static
main.c:151:5:LecturaSalon	24	static
main.c:162:5:LecturaComedor	24	static
main.c:174:6:LucesManualesComedor	8	static
main.c:185:6:LucesManualesSalon	8	static
main.c:197:6:LucesAutomaticasSalon	8	static
main.c:219:6:LucesAutomaticasComedor	8	static
main.c:249:5:main	8	static
main.c:329:6:SystemClock_Config	88	static
main.c:374:13:MX_ADC1_Init	24	static
main.c:424:13:MX_GPIO_Init	48	static
main.c:497:6:Error_Handler	4	static
